2020-09-16T22:04:13.938+0400	INFO	instance/beat.go:628	Home path: [/home/d_e/go/src/github.com/summit/ptbeat] Config path: [/home/d_e/go/src/github.com/summit/ptbeat] Data path: [/home/d_e/go/src/github.com/summit/ptbeat/data] Logs path: [/home/d_e/go/src/github.com/summit/ptbeat/logs]
2020-09-16T22:04:13.938+0400	INFO	instance/beat.go:636	Beat ID: 3f948acd-a977-4d22-89a1-b398d3eab3d8
2020-09-16T22:04:13.950+0400	INFO	[seccomp]	seccomp/seccomp.go:124	Syscall filter successfully installed
2020-09-16T22:04:13.950+0400	INFO	[beat]	instance/beat.go:960	Beat info	{"system_info": {"beat": {"path": {"config": "/home/d_e/go/src/github.com/summit/ptbeat", "data": "/home/d_e/go/src/github.com/summit/ptbeat/data", "home": "/home/d_e/go/src/github.com/summit/ptbeat", "logs": "/home/d_e/go/src/github.com/summit/ptbeat/logs"}, "type": "ptbeat", "uuid": "3f948acd-a977-4d22-89a1-b398d3eab3d8"}}}
2020-09-16T22:04:13.950+0400	INFO	[beat]	instance/beat.go:969	Build info	{"system_info": {"build": {"commit": "42195bd278fd851cf73d6118919f868a5cda2be0", "libbeat": "8.0.0", "time": "2020-09-16T16:31:58.000Z", "version": "8.0.0"}}}
2020-09-16T22:04:13.950+0400	INFO	[beat]	instance/beat.go:972	Go runtime info	{"system_info": {"go": {"os":"linux","arch":"amd64","max_procs":4,"version":"go1.15.2"}}}
2020-09-16T22:04:13.950+0400	INFO	[beat]	instance/beat.go:976	Host info	{"system_info": {"host": {"architecture":"x86_64","boot_time":"2020-09-16T13:01:59+04:00","containerized":false,"name":"Cl1rVoYance","ip":["127.0.0.1/8","::1/128","192.168.1.248/24","192.168.1.10/24","fd8a:9029:3bec:1:2563:e659:f796:eacd/64","fd8a:9029:3bec:1:b7d4:93a4:3f5f:f689/64","fe80::7955:83ba:3cd1:61a4/64","fe80::792e:e6a:9c3d:ff5a/64","172.18.0.1/16","fe80::42:34ff:fece:b8fb/64","fe80::5a6a:cf6e:832f:393d/64"],"kernel_version":"5.4.65-1-lts","mac":["d4:3d:7e:e0:46:be","02:42:e6:84:d6:cb","02:42:34:ce:b8:fb","d2:b2:10:73:8e:95"],"os":{"family":"","platform":"arch","name":"Arch Linux","version":"","major":0,"minor":0,"patch":0,"build":"rolling"},"timezone":"+04","timezone_offset_sec":14400,"id":"06b1dec98733473bbe7b13f1d557c9de"}}}
2020-09-16T22:04:13.950+0400	INFO	[beat]	instance/beat.go:1005	Process info	{"system_info": {"process": {"capabilities": {"inheritable":null,"permitted":null,"effective":null,"bounding":["chown","dac_override","dac_read_search","fowner","fsetid","kill","setgid","setuid","setpcap","linux_immutable","net_bind_service","net_broadcast","net_admin","net_raw","ipc_lock","ipc_owner","sys_module","sys_rawio","sys_chroot","sys_ptrace","sys_pacct","sys_admin","sys_boot","sys_nice","sys_resource","sys_time","sys_tty_config","mknod","lease","audit_write","audit_control","setfcap","mac_override","mac_admin","syslog","wake_alarm","block_suspend","audit_read"],"ambient":null}, "cwd": "/home/d_e/go/src/github.com/summit/ptbeat", "exe": "/home/d_e/go/src/github.com/summit/ptbeat/ptbeat", "name": "ptbeat", "pid": 53953, "ppid": 41324, "seccomp": {"mode":"filter","no_new_privs":true}, "start_time": "2020-09-16T22:04:12.980+0400"}}}
2020-09-16T22:04:13.950+0400	INFO	instance/beat.go:298	Setup Beat: ptbeat; Version: 8.0.0
2020-09-16T22:04:13.951+0400	INFO	[index-management]	idxmgmt/std.go:184	Set output.elasticsearch.index to 'ptbeat-8.0.0' as ILM is enabled.
2020-09-16T22:04:13.951+0400	INFO	eslegclient/connection.go:99	elasticsearch url: http://localhost:9200
2020-09-16T22:04:13.951+0400	INFO	[publisher]	pipeline/module.go:113	Beat name: Cl1rVoYance
2020-09-16T22:04:13.951+0400	INFO	[monitoring]	log/log.go:118	Starting metrics logging every 30s
2020-09-16T22:04:13.951+0400	INFO	instance/beat.go:449	ptbeat start running.
2020-09-16T22:04:13.951+0400	INFO	beater/PTbeat.go:46	ptbeat is running! Hit CTRL-C to stop it.
2020-09-16T22:04:16.940+0400	INFO	[add_cloud_metadata]	add_cloud_metadata/add_cloud_metadata.go:89	add_cloud_metadata: hosting provider type not detected.
2020-09-16T22:04:16.940+0400	INFO	beater/PTbeat.go:70	Event sent
2020-09-16T22:04:16.947+0400	INFO	beater/PTbeat.go:70	Event sent
2020-09-16T22:04:16.958+0400	INFO	beater/PTbeat.go:70	Event sent
2020-09-16T22:04:17.940+0400	INFO	[publisher_pipeline_output]	pipeline/output.go:143	Connecting to backoff(elasticsearch(http://localhost:9200))
2020-09-16T22:04:17.940+0400	INFO	[publisher]	pipeline/retry.go:219	retryer: send unwait signal to consumer
2020-09-16T22:04:17.941+0400	INFO	[publisher]	pipeline/retry.go:223	  done
2020-09-16T22:04:17.947+0400	INFO	[esclientleg]	eslegclient/connection.go:314	Attempting to connect to Elasticsearch version 7.9.1
2020-09-16T22:04:17.949+0400	INFO	[esclientleg]	eslegclient/connection.go:314	Attempting to connect to Elasticsearch version 7.9.1
2020-09-16T22:04:17.958+0400	INFO	beater/PTbeat.go:70	Event sent
2020-09-16T22:04:17.971+0400	INFO	[index-management]	idxmgmt/std.go:261	Auto ILM enable success.
2020-09-16T22:04:18.005+0400	INFO	[index-management]	idxmgmt/std.go:274	ILM policy successfully loaded.
2020-09-16T22:04:18.005+0400	INFO	[index-management]	idxmgmt/std.go:407	Set setup.template.name to '{ptbeat-8.0.0 {now/d}-000001}' as ILM is enabled.
2020-09-16T22:04:18.005+0400	INFO	[index-management]	idxmgmt/std.go:412	Set setup.template.pattern to 'ptbeat-8.0.0-*' as ILM is enabled.
2020-09-16T22:04:18.005+0400	INFO	[index-management]	idxmgmt/std.go:446	Set settings.index.lifecycle.rollover_alias in template to {ptbeat-8.0.0 {now/d}-000001} as ILM is enabled.
2020-09-16T22:04:18.005+0400	INFO	[index-management]	idxmgmt/std.go:450	Set settings.index.lifecycle.name in template to {ptbeat {"policy":{"phases":{"hot":{"actions":{"rollover":{"max_age":"30d","max_size":"50gb"}}}}}}} as ILM is enabled.
2020-09-16T22:04:18.009+0400	INFO	[template]	template/load.go:181	Existing template will be overwritten, as overwrite is enabled.
2020-09-16T22:04:18.049+0400	INFO	[template_loader]	template/load.go:121	Try loading template ptbeat-8.0.0 to Elasticsearch
2020-09-16T22:04:18.110+0400	INFO	[template_loader]	template/load.go:113	template with name 'ptbeat-8.0.0' loaded.
2020-09-16T22:04:18.110+0400	INFO	[index-management]	idxmgmt/std.go:298	Loaded index template.
2020-09-16T22:04:18.412+0400	INFO	[index-management]	idxmgmt/std.go:309	Write alias successfully generated.
2020-09-16T22:04:18.414+0400	INFO	[publisher_pipeline_output]	pipeline/output.go:151	Connection to backoff(elasticsearch(http://localhost:9200)) established
2020-09-16T22:04:18.958+0400	INFO	beater/PTbeat.go:70	Event sent
2020-09-16T22:04:19.958+0400	INFO	beater/PTbeat.go:70	Event sent
2020-09-16T22:04:20.958+0400	INFO	beater/PTbeat.go:70	Event sent
2020-09-16T22:04:21.958+0400	INFO	beater/PTbeat.go:70	Event sent
2020-09-16T22:04:22.958+0400	INFO	beater/PTbeat.go:70	Event sent
2020-09-16T22:04:23.958+0400	INFO	beater/PTbeat.go:70	Event sent
2020-09-16T22:04:24.958+0400	INFO	beater/PTbeat.go:70	Event sent
2020-09-16T22:04:25.959+0400	INFO	beater/PTbeat.go:70	Event sent
2020-09-16T22:04:26.959+0400	INFO	beater/PTbeat.go:70	Event sent
2020-09-16T22:04:27.958+0400	INFO	beater/PTbeat.go:70	Event sent
2020-09-16T22:04:28.958+0400	INFO	beater/PTbeat.go:70	Event sent
2020-09-16T22:04:29.959+0400	INFO	beater/PTbeat.go:70	Event sent
2020-09-16T22:04:30.958+0400	INFO	beater/PTbeat.go:70	Event sent
2020-09-16T22:04:31.959+0400	INFO	beater/PTbeat.go:70	Event sent
2020-09-16T22:04:32.958+0400	INFO	beater/PTbeat.go:70	Event sent
2020-09-16T22:04:33.959+0400	INFO	beater/PTbeat.go:70	Event sent
2020-09-16T22:04:34.959+0400	INFO	beater/PTbeat.go:70	Event sent
2020-09-16T22:04:35.959+0400	INFO	beater/PTbeat.go:70	Event sent
2020-09-16T22:04:36.959+0400	INFO	beater/PTbeat.go:70	Event sent
2020-09-16T22:04:37.958+0400	INFO	beater/PTbeat.go:70	Event sent
2020-09-16T22:04:38.959+0400	INFO	beater/PTbeat.go:70	Event sent
2020-09-16T22:04:39.959+0400	INFO	beater/PTbeat.go:70	Event sent
2020-09-16T22:04:40.958+0400	INFO	beater/PTbeat.go:70	Event sent
2020-09-16T22:04:41.959+0400	INFO	beater/PTbeat.go:70	Event sent
2020-09-16T22:04:42.959+0400	INFO	beater/PTbeat.go:70	Event sent
2020-09-16T22:04:43.954+0400	INFO	[monitoring]	log/log.go:145	Non-zero metrics in the last 30s	{"monitoring": {"metrics": {"beat":{"cpu":{"system":{"ticks":50,"time":{"ms":56}},"total":{"ticks":210,"time":{"ms":225},"value":210},"user":{"ticks":160,"time":{"ms":169}}},"handles":{"limit":{"hard":524288,"soft":1024},"open":12},"info":{"ephemeral_id":"72c43145-cadd-410d-93d1-bd3d834b4b5f","uptime":{"ms":30028}},"memstats":{"gc_next":6997968,"memory_alloc":4613224,"memory_total":25088432,"rss":48267264},"runtime":{"goroutines":17}},"libbeat":{"config":{"module":{"running":0}},"output":{"events":{"acked":29,"batches":16,"total":29},"type":"elasticsearch"},"pipeline":{"clients":1,"events":{"active":0,"published":29,"retry":3,"total":29},"queue":{"acked":29}}},"system":{"cpu":{"cores":4},"load":{"1":0.06,"15":0.31,"5":0.18,"norm":{"1":0.015,"15":0.0775,"5":0.045}}}}}}
2020-09-16T22:04:43.959+0400	INFO	beater/PTbeat.go:70	Event sent
2020-09-16T22:04:44.959+0400	INFO	beater/PTbeat.go:70	Event sent
2020-09-16T22:04:45.958+0400	INFO	beater/PTbeat.go:70	Event sent
2020-09-16T22:04:46.959+0400	INFO	beater/PTbeat.go:70	Event sent
2020-09-16T22:04:47.959+0400	INFO	beater/PTbeat.go:70	Event sent
2020-09-16T22:04:48.959+0400	INFO	beater/PTbeat.go:70	Event sent
2020-09-16T22:04:49.958+0400	INFO	beater/PTbeat.go:70	Event sent
2020-09-16T22:04:50.958+0400	INFO	beater/PTbeat.go:70	Event sent
2020-09-16T22:04:51.958+0400	INFO	beater/PTbeat.go:70	Event sent
2020-09-16T22:04:52.959+0400	INFO	beater/PTbeat.go:70	Event sent
2020-09-16T22:04:53.959+0400	INFO	beater/PTbeat.go:70	Event sent
2020-09-16T22:04:54.959+0400	INFO	beater/PTbeat.go:70	Event sent
2020-09-16T22:04:55.958+0400	INFO	beater/PTbeat.go:70	Event sent
2020-09-16T22:04:56.958+0400	INFO	beater/PTbeat.go:70	Event sent
2020-09-16T22:04:57.958+0400	INFO	beater/PTbeat.go:70	Event sent
2020-09-16T22:04:58.959+0400	INFO	beater/PTbeat.go:70	Event sent
2020-09-16T22:04:59.958+0400	INFO	beater/PTbeat.go:70	Event sent
2020-09-16T22:05:00.958+0400	INFO	beater/PTbeat.go:70	Event sent
2020-09-16T22:05:01.958+0400	INFO	beater/PTbeat.go:70	Event sent
2020-09-16T22:05:02.958+0400	INFO	beater/PTbeat.go:70	Event sent
2020-09-16T22:05:03.958+0400	INFO	beater/PTbeat.go:70	Event sent
2020-09-16T22:05:04.959+0400	INFO	beater/PTbeat.go:70	Event sent
2020-09-16T22:05:05.958+0400	INFO	beater/PTbeat.go:70	Event sent
2020-09-16T22:05:06.958+0400	INFO	beater/PTbeat.go:70	Event sent
2020-09-16T22:05:07.958+0400	INFO	beater/PTbeat.go:70	Event sent
2020-09-16T22:05:08.959+0400	INFO	beater/PTbeat.go:70	Event sent
2020-09-16T22:05:09.959+0400	INFO	beater/PTbeat.go:70	Event sent
2020-09-16T22:05:10.959+0400	INFO	beater/PTbeat.go:70	Event sent
2020-09-16T22:05:11.958+0400	INFO	beater/PTbeat.go:70	Event sent
2020-09-16T22:05:12.958+0400	INFO	beater/PTbeat.go:70	Event sent
2020-09-16T22:05:13.954+0400	INFO	[monitoring]	log/log.go:145	Non-zero metrics in the last 30s	{"monitoring": {"metrics": {"beat":{"cpu":{"system":{"ticks":60,"time":{"ms":13}},"total":{"ticks":280,"time":{"ms":67},"value":280},"user":{"ticks":220,"time":{"ms":54}}},"handles":{"limit":{"hard":524288,"soft":1024},"open":12},"info":{"ephemeral_id":"72c43145-cadd-410d-93d1-bd3d834b4b5f","uptime":{"ms":60030}},"memstats":{"gc_next":6951504,"memory_alloc":4070168,"memory_total":30202640},"runtime":{"goroutines":17}},"libbeat":{"config":{"module":{"running":0}},"output":{"events":{"acked":29,"batches":18,"total":29}},"pipeline":{"clients":1,"events":{"active":1,"published":30,"total":30},"queue":{"acked":29}}},"system":{"load":{"1":0.16,"15":0.31,"5":0.2,"norm":{"1":0.04,"15":0.0775,"5":0.05}}}}}}
2020-09-16T22:05:13.958+0400	INFO	beater/PTbeat.go:70	Event sent
2020-09-16T22:05:14.958+0400	INFO	beater/PTbeat.go:70	Event sent
2020-09-16T22:05:15.959+0400	INFO	beater/PTbeat.go:70	Event sent
2020-09-16T22:05:16.959+0400	INFO	beater/PTbeat.go:70	Event sent
2020-09-16T22:05:17.959+0400	INFO	beater/PTbeat.go:70	Event sent
2020-09-16T22:05:18.958+0400	INFO	beater/PTbeat.go:70	Event sent
2020-09-16T22:05:19.959+0400	INFO	beater/PTbeat.go:70	Event sent
2020-09-16T22:05:20.959+0400	INFO	beater/PTbeat.go:70	Event sent
2020-09-16T22:05:21.958+0400	INFO	beater/PTbeat.go:70	Event sent
2020-09-16T22:05:22.959+0400	INFO	beater/PTbeat.go:70	Event sent
2020-09-16T22:05:23.958+0400	INFO	beater/PTbeat.go:70	Event sent
2020-09-16T22:05:24.958+0400	INFO	beater/PTbeat.go:70	Event sent
2020-09-16T22:05:25.958+0400	INFO	beater/PTbeat.go:70	Event sent
2020-09-16T22:05:26.958+0400	INFO	beater/PTbeat.go:70	Event sent
2020-09-16T22:05:27.958+0400	INFO	beater/PTbeat.go:70	Event sent
2020-09-16T22:05:28.958+0400	INFO	beater/PTbeat.go:70	Event sent
2020-09-16T22:05:29.958+0400	INFO	beater/PTbeat.go:70	Event sent
2020-09-16T22:05:30.958+0400	INFO	beater/PTbeat.go:70	Event sent
2020-09-16T22:05:31.959+0400	INFO	beater/PTbeat.go:70	Event sent
2020-09-16T22:05:32.958+0400	INFO	beater/PTbeat.go:70	Event sent
2020-09-16T22:05:33.958+0400	INFO	beater/PTbeat.go:70	Event sent
2020-09-16T22:05:34.958+0400	INFO	beater/PTbeat.go:70	Event sent
2020-09-16T22:05:35.958+0400	INFO	beater/PTbeat.go:70	Event sent
2020-09-16T22:05:36.958+0400	INFO	beater/PTbeat.go:70	Event sent
2020-09-16T22:05:37.958+0400	INFO	beater/PTbeat.go:70	Event sent
2020-09-16T22:05:38.958+0400	INFO	beater/PTbeat.go:70	Event sent
2020-09-16T22:05:39.958+0400	INFO	beater/PTbeat.go:70	Event sent
2020-09-16T22:05:40.959+0400	INFO	beater/PTbeat.go:70	Event sent
2020-09-16T22:05:41.958+0400	INFO	beater/PTbeat.go:70	Event sent
2020-09-16T22:05:42.958+0400	INFO	beater/PTbeat.go:70	Event sent
2020-09-16T22:05:43.952+0400	INFO	[monitoring]	log/log.go:145	Non-zero metrics in the last 30s	{"monitoring": {"metrics": {"beat":{"cpu":{"system":{"ticks":90,"time":{"ms":28}},"total":{"ticks":340,"time":{"ms":56},"value":340},"user":{"ticks":250,"time":{"ms":28}}},"handles":{"limit":{"hard":524288,"soft":1024},"open":12},"info":{"ephemeral_id":"72c43145-cadd-410d-93d1-bd3d834b4b5f","uptime":{"ms":90029}},"memstats":{"gc_next":6947600,"memory_alloc":6177008,"memory_total":35019472},"runtime":{"goroutines":17}},"libbeat":{"config":{"module":{"running":0}},"output":{"events":{"acked":30,"batches":17,"total":30}},"pipeline":{"clients":1,"events":{"active":1,"published":30,"total":30},"queue":{"acked":30}}},"system":{"load":{"1":0.36,"15":0.32,"5":0.24,"norm":{"1":0.09,"15":0.08,"5":0.06}}}}}}
2020-09-16T22:05:43.958+0400	INFO	beater/PTbeat.go:70	Event sent
2020-09-16T22:05:44.958+0400	INFO	beater/PTbeat.go:70	Event sent
2020-09-16T22:05:45.959+0400	INFO	beater/PTbeat.go:70	Event sent
2020-09-16T22:05:46.959+0400	INFO	beater/PTbeat.go:70	Event sent
2020-09-16T22:05:47.958+0400	INFO	beater/PTbeat.go:70	Event sent
2020-09-16T22:05:48.958+0400	INFO	beater/PTbeat.go:70	Event sent
2020-09-16T22:05:49.959+0400	INFO	beater/PTbeat.go:70	Event sent
2020-09-16T22:05:50.959+0400	INFO	beater/PTbeat.go:70	Event sent
2020-09-16T22:05:51.958+0400	INFO	beater/PTbeat.go:70	Event sent
2020-09-16T22:05:52.959+0400	INFO	beater/PTbeat.go:70	Event sent
2020-09-16T22:05:53.958+0400	INFO	beater/PTbeat.go:70	Event sent
2020-09-16T22:05:54.959+0400	INFO	beater/PTbeat.go:70	Event sent
2020-09-16T22:05:55.959+0400	INFO	beater/PTbeat.go:70	Event sent
2020-09-16T22:05:56.958+0400	INFO	beater/PTbeat.go:70	Event sent
2020-09-16T22:05:57.958+0400	INFO	beater/PTbeat.go:70	Event sent
2020-09-16T22:05:58.958+0400	INFO	beater/PTbeat.go:70	Event sent
2020-09-16T22:05:59.958+0400	INFO	beater/PTbeat.go:70	Event sent
2020-09-16T22:06:00.958+0400	INFO	beater/PTbeat.go:70	Event sent
2020-09-16T22:06:01.958+0400	INFO	beater/PTbeat.go:70	Event sent
2020-09-16T22:06:02.959+0400	INFO	beater/PTbeat.go:70	Event sent
2020-09-16T22:06:03.959+0400	INFO	beater/PTbeat.go:70	Event sent
2020-09-16T22:06:04.958+0400	INFO	beater/PTbeat.go:70	Event sent
2020-09-16T22:06:05.959+0400	INFO	beater/PTbeat.go:70	Event sent
2020-09-16T22:06:06.959+0400	INFO	beater/PTbeat.go:70	Event sent
2020-09-16T22:06:07.959+0400	INFO	beater/PTbeat.go:70	Event sent
2020-09-16T22:06:08.959+0400	INFO	beater/PTbeat.go:70	Event sent
2020-09-16T22:06:09.959+0400	INFO	beater/PTbeat.go:70	Event sent
2020-09-16T22:06:10.958+0400	INFO	beater/PTbeat.go:70	Event sent
2020-09-16T22:06:11.959+0400	INFO	beater/PTbeat.go:70	Event sent
2020-09-16T22:06:12.959+0400	INFO	beater/PTbeat.go:70	Event sent
2020-09-16T22:06:13.953+0400	INFO	[monitoring]	log/log.go:145	Non-zero metrics in the last 30s	{"monitoring": {"metrics": {"beat":{"cpu":{"system":{"ticks":110,"time":{"ms":18}},"total":{"ticks":400,"time":{"ms":65},"value":400},"user":{"ticks":290,"time":{"ms":47}}},"handles":{"limit":{"hard":524288,"soft":1024},"open":12},"info":{"ephemeral_id":"72c43145-cadd-410d-93d1-bd3d834b4b5f","uptime":{"ms":120029}},"memstats":{"gc_next":6933056,"memory_alloc":5036400,"memory_total":39999576,"rss":536576},"runtime":{"goroutines":17}},"libbeat":{"config":{"module":{"running":0}},"output":{"events":{"acked":31,"batches":17,"total":31}},"pipeline":{"clients":1,"events":{"active":0,"published":30,"total":30},"queue":{"acked":31}}},"system":{"load":{"1":0.35,"15":0.32,"5":0.25,"norm":{"1":0.0875,"15":0.08,"5":0.0625}}}}}}
2020-09-16T22:06:13.958+0400	INFO	beater/PTbeat.go:70	Event sent
2020-09-16T22:06:14.959+0400	INFO	beater/PTbeat.go:70	Event sent
2020-09-16T22:06:15.958+0400	INFO	beater/PTbeat.go:70	Event sent
2020-09-16T22:06:16.958+0400	INFO	beater/PTbeat.go:70	Event sent
2020-09-16T22:06:17.958+0400	INFO	beater/PTbeat.go:70	Event sent
2020-09-16T22:06:18.959+0400	INFO	beater/PTbeat.go:70	Event sent
2020-09-16T22:06:19.959+0400	INFO	beater/PTbeat.go:70	Event sent
2020-09-16T22:06:20.959+0400	INFO	beater/PTbeat.go:70	Event sent
2020-09-16T22:06:21.958+0400	INFO	beater/PTbeat.go:70	Event sent
2020-09-16T22:06:22.958+0400	INFO	beater/PTbeat.go:70	Event sent
2020-09-16T22:06:23.959+0400	INFO	beater/PTbeat.go:70	Event sent
2020-09-16T22:06:24.959+0400	INFO	beater/PTbeat.go:70	Event sent
2020-09-16T22:06:25.958+0400	INFO	beater/PTbeat.go:70	Event sent
2020-09-16T22:06:26.958+0400	INFO	beater/PTbeat.go:70	Event sent
2020-09-16T22:06:27.959+0400	INFO	beater/PTbeat.go:70	Event sent
2020-09-16T22:06:28.959+0400	INFO	beater/PTbeat.go:70	Event sent
2020-09-16T22:06:29.959+0400	INFO	beater/PTbeat.go:70	Event sent
2020-09-16T22:06:30.958+0400	INFO	beater/PTbeat.go:70	Event sent
2020-09-16T22:06:31.959+0400	INFO	beater/PTbeat.go:70	Event sent
2020-09-16T22:06:32.959+0400	INFO	beater/PTbeat.go:70	Event sent
2020-09-16T22:06:33.958+0400	INFO	beater/PTbeat.go:70	Event sent
2020-09-16T22:06:34.959+0400	INFO	beater/PTbeat.go:70	Event sent
2020-09-16T22:06:35.959+0400	INFO	beater/PTbeat.go:70	Event sent
2020-09-16T22:06:36.959+0400	INFO	beater/PTbeat.go:70	Event sent
2020-09-16T22:06:37.959+0400	INFO	beater/PTbeat.go:70	Event sent
2020-09-16T22:06:38.958+0400	INFO	beater/PTbeat.go:70	Event sent
2020-09-16T22:06:39.959+0400	INFO	beater/PTbeat.go:70	Event sent
2020-09-16T22:06:40.958+0400	INFO	beater/PTbeat.go:70	Event sent
2020-09-16T22:06:41.958+0400	INFO	beater/PTbeat.go:70	Event sent
2020-09-16T22:06:42.958+0400	INFO	beater/PTbeat.go:70	Event sent
2020-09-16T22:06:43.953+0400	INFO	[monitoring]	log/log.go:145	Non-zero metrics in the last 30s	{"monitoring": {"metrics": {"beat":{"cpu":{"system":{"ticks":150,"time":{"ms":35}},"total":{"ticks":460,"time":{"ms":55},"value":460},"user":{"ticks":310,"time":{"ms":20}}},"handles":{"limit":{"hard":524288,"soft":1024},"open":12},"info":{"ephemeral_id":"72c43145-cadd-410d-93d1-bd3d834b4b5f","uptime":{"ms":150029}},"memstats":{"gc_next":7109456,"memory_alloc":4188040,"memory_total":44731176},"runtime":{"goroutines":17}},"libbeat":{"config":{"module":{"running":0}},"output":{"events":{"acked":30,"batches":17,"total":30}},"pipeline":{"clients":1,"events":{"active":0,"published":30,"total":30},"queue":{"acked":30}}},"system":{"load":{"1":0.38,"15":0.33,"5":0.27,"norm":{"1":0.095,"15":0.0825,"5":0.0675}}}}}}
2020-09-16T22:06:43.959+0400	INFO	beater/PTbeat.go:70	Event sent
2020-09-16T22:06:44.958+0400	INFO	beater/PTbeat.go:70	Event sent
2020-09-16T22:06:45.958+0400	INFO	beater/PTbeat.go:70	Event sent
2020-09-16T22:06:46.959+0400	INFO	beater/PTbeat.go:70	Event sent
2020-09-16T22:06:47.959+0400	INFO	beater/PTbeat.go:70	Event sent
2020-09-16T22:06:48.958+0400	INFO	beater/PTbeat.go:70	Event sent
2020-09-16T22:06:49.958+0400	INFO	beater/PTbeat.go:70	Event sent
2020-09-16T22:06:50.958+0400	INFO	beater/PTbeat.go:70	Event sent
2020-09-16T22:06:51.958+0400	INFO	beater/PTbeat.go:70	Event sent
2020-09-16T22:06:52.959+0400	INFO	beater/PTbeat.go:70	Event sent
2020-09-16T22:06:53.958+0400	INFO	beater/PTbeat.go:70	Event sent
2020-09-16T22:06:54.887+0400	INFO	[monitoring]	log/log.go:153	Total non-zero metrics	{"monitoring": {"metrics": {"beat":{"cpu":{"system":{"ticks":150,"time":{"ms":150}},"total":{"ticks":480,"time":{"ms":485},"value":480},"user":{"ticks":330,"time":{"ms":335}}},"handles":{"limit":{"hard":524288,"soft":1024},"open":11},"info":{"ephemeral_id":"72c43145-cadd-410d-93d1-bd3d834b4b5f","uptime":{"ms":160964}},"memstats":{"gc_next":7109456,"memory_alloc":5982032,"memory_total":46525168,"rss":48803840},"runtime":{"goroutines":16}},"libbeat":{"config":{"module":{"running":0}},"output":{"events":{"acked":159,"batches":91,"total":159},"type":"elasticsearch"},"pipeline":{"clients":0,"events":{"active":1,"published":160,"retry":3,"total":160},"queue":{"acked":159}}},"system":{"cpu":{"cores":4},"load":{"1":0.32,"15":0.32,"5":0.26,"norm":{"1":0.08,"15":0.08,"5":0.065}}}}}}
2020-09-16T22:06:54.887+0400	INFO	[monitoring]	log/log.go:154	Uptime: 2m40.964785747s
2020-09-16T22:06:54.887+0400	INFO	[monitoring]	log/log.go:131	Stopping metrics logging.
2020-09-16T22:06:54.887+0400	INFO	instance/beat.go:455	ptbeat stopped.
