2020-09-16T22:59:53.992+0400	INFO	instance/beat.go:628	Home path: [/home/d_e/ptbeat] Config path: [/home/d_e/ptbeat] Data path: [/home/d_e/ptbeat/data] Logs path: [/home/d_e/ptbeat/logs]
2020-09-16T22:59:53.992+0400	INFO	instance/beat.go:636	Beat ID: 3f948acd-a977-4d22-89a1-b398d3eab3d8
2020-09-16T22:59:54.004+0400	INFO	[beat]	instance/beat.go:960	Beat info	{"system_info": {"beat": {"path": {"config": "/home/d_e/ptbeat", "data": "/home/d_e/ptbeat/data", "home": "/home/d_e/ptbeat", "logs": "/home/d_e/ptbeat/logs"}, "type": "ptbeat", "uuid": "3f948acd-a977-4d22-89a1-b398d3eab3d8"}}}
2020-09-16T22:59:54.004+0400	INFO	[beat]	instance/beat.go:969	Build info	{"system_info": {"build": {"commit": "0d1f750f155b9dd9d4db1b71190aa7aabeaa5be3", "libbeat": "8.0.0", "time": "2020-09-16T18:33:34.000Z", "version": "8.0.0"}}}
2020-09-16T22:59:54.004+0400	INFO	[beat]	instance/beat.go:972	Go runtime info	{"system_info": {"go": {"os":"linux","arch":"amd64","max_procs":4,"version":"go1.15.2"}}}
2020-09-16T22:59:54.005+0400	INFO	[beat]	instance/beat.go:976	Host info	{"system_info": {"host": {"architecture":"x86_64","boot_time":"2020-09-16T13:01:59+04:00","containerized":false,"name":"Cl1rVoYance","ip":["127.0.0.1/8","::1/128","192.168.1.248/24","192.168.1.10/24","fd8a:9029:3bec:1:2563:e659:f796:eacd/64","fd8a:9029:3bec:1:b7d4:93a4:3f5f:f689/64","fe80::7955:83ba:3cd1:61a4/64","fe80::792e:e6a:9c3d:ff5a/64","172.18.0.1/16","fe80::42:34ff:fece:b8fb/64","fe80::5a6a:cf6e:832f:393d/64"],"kernel_version":"5.4.65-1-lts","mac":["d4:3d:7e:e0:46:be","02:42:e6:84:d6:cb","02:42:34:ce:b8:fb","d2:b2:10:73:8e:95"],"os":{"family":"","platform":"arch","name":"Arch Linux","version":"","major":0,"minor":0,"patch":0,"build":"rolling"},"timezone":"+04","timezone_offset_sec":14400,"id":"06b1dec98733473bbe7b13f1d557c9de"}}}
2020-09-16T22:59:54.005+0400	INFO	[beat]	instance/beat.go:1005	Process info	{"system_info": {"process": {"capabilities": {"inheritable":null,"permitted":null,"effective":null,"bounding":["chown","dac_override","dac_read_search","fowner","fsetid","kill","setgid","setuid","setpcap","linux_immutable","net_bind_service","net_broadcast","net_admin","net_raw","ipc_lock","ipc_owner","sys_module","sys_rawio","sys_chroot","sys_ptrace","sys_pacct","sys_admin","sys_boot","sys_nice","sys_resource","sys_time","sys_tty_config","mknod","lease","audit_write","audit_control","setfcap","mac_override","mac_admin","syslog","wake_alarm","block_suspend","audit_read"],"ambient":null}, "cwd": "/home/d_e/ptbeat", "exe": "/home/d_e/ptbeat/ptbeat", "name": "ptbeat", "pid": 61987, "ppid": 41324, "seccomp": {"mode":"disabled","no_new_privs":false}, "start_time": "2020-09-16T22:59:53.030+0400"}}}
2020-09-16T22:59:54.005+0400	INFO	instance/beat.go:298	Setup Beat: ptbeat; Version: 8.0.0
2020-09-16T22:59:54.005+0400	INFO	[index-management]	idxmgmt/std.go:184	Set output.elasticsearch.index to 'ptbeat-8.0.0' as ILM is enabled.
2020-09-16T22:59:54.005+0400	INFO	eslegclient/connection.go:99	elasticsearch url: http://localhost:9200
2020-09-16T22:59:54.006+0400	INFO	[publisher]	pipeline/module.go:113	Beat name: Cl1rVoYance
