2020-09-16T20:51:41.780+0400	INFO	instance/beat.go:628	Home path: [/home/d_e/go/src/github.com/summit/ptbeat] Config path: [/home/d_e/go/src/github.com/summit/ptbeat] Data path: [/home/d_e/go/src/github.com/summit/ptbeat/data] Logs path: [/home/d_e/go/src/github.com/summit/ptbeat/logs]
2020-09-16T20:51:41.780+0400	INFO	instance/beat.go:636	Beat ID: 3f948acd-a977-4d22-89a1-b398d3eab3d8
2020-09-16T20:51:41.789+0400	INFO	[seccomp]	seccomp/seccomp.go:124	Syscall filter successfully installed
2020-09-16T20:51:41.789+0400	INFO	[beat]	instance/beat.go:960	Beat info	{"system_info": {"beat": {"path": {"config": "/home/d_e/go/src/github.com/summit/ptbeat", "data": "/home/d_e/go/src/github.com/summit/ptbeat/data", "home": "/home/d_e/go/src/github.com/summit/ptbeat", "logs": "/home/d_e/go/src/github.com/summit/ptbeat/logs"}, "type": "ptbeat", "uuid": "3f948acd-a977-4d22-89a1-b398d3eab3d8"}}}
2020-09-16T20:51:41.789+0400	INFO	[beat]	instance/beat.go:969	Build info	{"system_info": {"build": {"commit": "42195bd278fd851cf73d6118919f868a5cda2be0", "libbeat": "8.0.0", "time": "2020-09-16T16:31:58.000Z", "version": "8.0.0"}}}
2020-09-16T20:51:41.789+0400	INFO	[beat]	instance/beat.go:972	Go runtime info	{"system_info": {"go": {"os":"linux","arch":"amd64","max_procs":4,"version":"go1.15.2"}}}
2020-09-16T20:51:41.790+0400	INFO	[beat]	instance/beat.go:976	Host info	{"system_info": {"host": {"architecture":"x86_64","boot_time":"2020-09-16T13:01:59+04:00","containerized":false,"name":"Cl1rVoYance","ip":["127.0.0.1/8","192.168.1.248/24","192.168.1.10/24","10.142.0.74/32"],"kernel_version":"5.4.65-1-lts","mac":["d4:3d:7e:e0:46:be","02:42:e6:84:d6:cb"],"os":{"family":"","platform":"arch","name":"Arch Linux","version":"","major":0,"minor":0,"patch":0,"build":"rolling"},"timezone":"+04","timezone_offset_sec":14400,"id":"06b1dec98733473bbe7b13f1d557c9de"}}}
2020-09-16T20:51:41.790+0400	INFO	[beat]	instance/beat.go:1005	Process info	{"system_info": {"process": {"capabilities": {"inheritable":null,"permitted":null,"effective":null,"bounding":["chown","dac_override","dac_read_search","fowner","fsetid","kill","setgid","setuid","setpcap","linux_immutable","net_bind_service","net_broadcast","net_admin","net_raw","ipc_lock","ipc_owner","sys_module","sys_rawio","sys_chroot","sys_ptrace","sys_pacct","sys_admin","sys_boot","sys_nice","sys_resource","sys_time","sys_tty_config","mknod","lease","audit_write","audit_control","setfcap","mac_override","mac_admin","syslog","wake_alarm","block_suspend","audit_read"],"ambient":null}, "cwd": "/home/d_e/go/src/github.com/summit/ptbeat", "exe": "/home/d_e/go/src/github.com/summit/ptbeat/ptbeat", "name": "ptbeat", "pid": 40266, "ppid": 39567, "seccomp": {"mode":"filter","no_new_privs":true}, "start_time": "2020-09-16T20:51:40.830+0400"}}}
2020-09-16T20:51:41.790+0400	INFO	instance/beat.go:298	Setup Beat: ptbeat; Version: 8.0.0
2020-09-16T20:51:41.790+0400	INFO	[index-management]	idxmgmt/std.go:184	Set output.elasticsearch.index to 'ptbeat-8.0.0' as ILM is enabled.
2020-09-16T20:51:41.790+0400	INFO	eslegclient/connection.go:99	elasticsearch url: http://localhost:9200
2020-09-16T20:51:41.790+0400	INFO	[publisher]	pipeline/module.go:113	Beat name: Cl1rVoYance
2020-09-16T20:51:41.790+0400	INFO	[monitoring]	log/log.go:118	Starting metrics logging every 30s
2020-09-16T20:51:41.790+0400	INFO	instance/beat.go:449	ptbeat start running.
2020-09-16T20:51:41.790+0400	INFO	beater/PTbeat.go:46	ptbeat is running! Hit CTRL-C to stop it.
2020-09-16T20:51:44.781+0400	INFO	[add_cloud_metadata]	add_cloud_metadata/add_cloud_metadata.go:89	add_cloud_metadata: hosting provider type not detected.
2020-09-16T20:51:44.781+0400	INFO	beater/PTbeat.go:70	Event sent
2020-09-16T20:51:44.907+0400	INFO	beater/PTbeat.go:70	Event sent
2020-09-16T20:51:45.034+0400	INFO	beater/PTbeat.go:70	Event sent
2020-09-16T20:51:45.781+0400	INFO	[publisher]	pipeline/retry.go:219	retryer: send unwait signal to consumer
2020-09-16T20:51:45.781+0400	INFO	[publisher]	pipeline/retry.go:223	  done
2020-09-16T20:51:45.781+0400	INFO	[publisher_pipeline_output]	pipeline/output.go:143	Connecting to backoff(elasticsearch(http://localhost:9200))
2020-09-16T20:51:45.917+0400	INFO	beater/PTbeat.go:70	Event sent
2020-09-16T20:51:46.917+0400	INFO	beater/PTbeat.go:70	Event sent
2020-09-16T20:51:47.529+0400	ERROR	[publisher_pipeline_output]	pipeline/output.go:154	Failed to connect to backoff(elasticsearch(http://localhost:9200)): Get "http://localhost:9200": dial tcp [::1]:9200: connect: cannot assign requested address
2020-09-16T20:51:47.529+0400	INFO	[publisher_pipeline_output]	pipeline/output.go:145	Attempting to reconnect to backoff(elasticsearch(http://localhost:9200)) with 1 reconnect attempt(s)
2020-09-16T20:51:47.529+0400	INFO	[publisher]	pipeline/retry.go:219	retryer: send unwait signal to consumer
2020-09-16T20:51:47.529+0400	INFO	[publisher]	pipeline/retry.go:223	  done
2020-09-16T20:51:47.917+0400	INFO	beater/PTbeat.go:70	Event sent
2020-09-16T20:51:48.917+0400	INFO	beater/PTbeat.go:70	Event sent
2020-09-16T20:51:49.626+0400	ERROR	[publisher_pipeline_output]	pipeline/output.go:154	Failed to connect to backoff(elasticsearch(http://localhost:9200)): Get "http://localhost:9200": dial tcp 127.0.0.1:9200: connect: connection refused
2020-09-16T20:51:49.626+0400	INFO	[publisher_pipeline_output]	pipeline/output.go:145	Attempting to reconnect to backoff(elasticsearch(http://localhost:9200)) with 2 reconnect attempt(s)
2020-09-16T20:51:49.626+0400	INFO	[publisher]	pipeline/retry.go:219	retryer: send unwait signal to consumer
2020-09-16T20:51:49.626+0400	INFO	[publisher]	pipeline/retry.go:223	  done
2020-09-16T20:51:49.917+0400	INFO	beater/PTbeat.go:70	Event sent
2020-09-16T20:51:50.918+0400	INFO	beater/PTbeat.go:70	Event sent
2020-09-16T20:51:51.917+0400	INFO	beater/PTbeat.go:70	Event sent
2020-09-16T20:51:52.917+0400	INFO	beater/PTbeat.go:70	Event sent
2020-09-16T20:51:53.917+0400	INFO	beater/PTbeat.go:70	Event sent
2020-09-16T20:51:54.917+0400	INFO	beater/PTbeat.go:70	Event sent
2020-09-16T20:51:55.452+0400	ERROR	[publisher_pipeline_output]	pipeline/output.go:154	Failed to connect to backoff(elasticsearch(http://localhost:9200)): Get "http://localhost:9200": dial tcp 127.0.0.1:9200: connect: connection refused
2020-09-16T20:51:55.452+0400	INFO	[publisher_pipeline_output]	pipeline/output.go:145	Attempting to reconnect to backoff(elasticsearch(http://localhost:9200)) with 3 reconnect attempt(s)
2020-09-16T20:51:55.452+0400	INFO	[publisher]	pipeline/retry.go:219	retryer: send unwait signal to consumer
2020-09-16T20:51:55.452+0400	INFO	[publisher]	pipeline/retry.go:223	  done
2020-09-16T20:51:55.917+0400	INFO	beater/PTbeat.go:70	Event sent
2020-09-16T20:51:56.337+0400	INFO	[monitoring]	log/log.go:153	Total non-zero metrics	{"monitoring": {"metrics": {"beat":{"cpu":{"system":{"ticks":10,"time":{"ms":12}},"total":{"ticks":40,"time":{"ms":57},"value":40},"user":{"ticks":30,"time":{"ms":45}}},"handles":{"limit":{"hard":524288,"soft":1024},"open":10},"info":{"ephemeral_id":"d00f25a6-c640-4386-ba2e-b0967131f3fc","uptime":{"ms":14565}},"memstats":{"gc_next":6283680,"memory_alloc":4324992,"memory_total":9901480,"rss":41648128},"runtime":{"goroutines":14}},"libbeat":{"config":{"module":{"running":0}},"output":{"type":"elasticsearch"},"pipeline":{"clients":0,"events":{"active":14,"published":14,"retry":9,"total":14}}},"system":{"cpu":{"cores":4},"load":{"1":0.36,"15":0.53,"5":0.36,"norm":{"1":0.09,"15":0.1325,"5":0.09}}}}}}
2020-09-16T20:51:56.337+0400	INFO	[monitoring]	log/log.go:154	Uptime: 14.568669817s
2020-09-16T20:51:56.337+0400	INFO	[monitoring]	log/log.go:131	Stopping metrics logging.
2020-09-16T20:51:56.337+0400	INFO	instance/beat.go:455	ptbeat stopped.
