2020-09-17T13:18:44.512+0400	INFO	instance/beat.go:628	Home path: [/home/d_e/ptbeat] Config path: [/home/d_e/ptbeat] Data path: [/home/d_e/ptbeat/data] Logs path: [/home/d_e/ptbeat/logs]
2020-09-17T13:18:44.512+0400	INFO	instance/beat.go:636	Beat ID: 3f948acd-a977-4d22-89a1-b398d3eab3d8
2020-09-17T13:18:44.526+0400	INFO	[seccomp]	seccomp/seccomp.go:124	Syscall filter successfully installed
2020-09-17T13:18:44.526+0400	INFO	[beat]	instance/beat.go:960	Beat info	{"system_info": {"beat": {"path": {"config": "/home/d_e/ptbeat", "data": "/home/d_e/ptbeat/data", "home": "/home/d_e/ptbeat", "logs": "/home/d_e/ptbeat/logs"}, "type": "ptbeat", "uuid": "3f948acd-a977-4d22-89a1-b398d3eab3d8"}}}
2020-09-17T13:18:44.526+0400	INFO	[beat]	instance/beat.go:969	Build info	{"system_info": {"build": {"commit": "unknown", "libbeat": "8.0.0", "time": "0001-01-01T00:00:00.000Z", "version": "8.0.0"}}}
2020-09-17T13:18:44.526+0400	INFO	[beat]	instance/beat.go:972	Go runtime info	{"system_info": {"go": {"os":"linux","arch":"amd64","max_procs":4,"version":"go1.15.2"}}}
2020-09-17T13:18:44.526+0400	INFO	[beat]	instance/beat.go:976	Host info	{"system_info": {"host": {"architecture":"x86_64","boot_time":"2020-09-17T11:46:47+04:00","containerized":false,"name":"Cl1rVoYance","ip":["127.0.0.1/8","::1/128","192.168.1.10/24","192.168.1.248/24","fd8a:9029:3bec:1:2563:e659:f796:eacd/64","fd8a:9029:3bec:1:b7d4:93a4:3f5f:f689/64","fe80::7955:83ba:3cd1:61a4/64","fe80::792e:e6a:9c3d:ff5a/64","172.18.0.1/16","172.17.0.1/16"],"kernel_version":"5.4.65-1-lts","mac":["d4:3d:7e:e0:46:be","02:42:4d:5c:9f:92","02:42:a6:15:f3:36"],"os":{"family":"","platform":"arch","name":"Arch Linux","version":"","major":0,"minor":0,"patch":0,"build":"rolling"},"timezone":"+04","timezone_offset_sec":14400,"id":"06b1dec98733473bbe7b13f1d557c9de"}}}
2020-09-17T13:18:44.526+0400	INFO	[beat]	instance/beat.go:1005	Process info	{"system_info": {"process": {"capabilities": {"inheritable":null,"permitted":null,"effective":null,"bounding":["chown","dac_override","dac_read_search","fowner","fsetid","kill","setgid","setuid","setpcap","linux_immutable","net_bind_service","net_broadcast","net_admin","net_raw","ipc_lock","ipc_owner","sys_module","sys_rawio","sys_chroot","sys_ptrace","sys_pacct","sys_admin","sys_boot","sys_nice","sys_resource","sys_time","sys_tty_config","mknod","lease","audit_write","audit_control","setfcap","mac_override","mac_admin","syslog","wake_alarm","block_suspend","audit_read"],"ambient":null}, "cwd": "/home/d_e/ptbeat", "exe": "/home/d_e/ptbeat/mybin", "name": "mybin", "pid": 19875, "ppid": 11405, "seccomp": {"mode":"filter","no_new_privs":true}, "start_time": "2020-09-17T13:18:44.020+0400"}}}
2020-09-17T13:18:44.526+0400	INFO	instance/beat.go:298	Setup Beat: ptbeat; Version: 8.0.0
2020-09-17T13:18:44.527+0400	INFO	[index-management]	idxmgmt/std.go:184	Set output.elasticsearch.index to 'ptbeat-8.0.0' as ILM is enabled.
2020-09-17T13:18:44.527+0400	INFO	eslegclient/connection.go:99	elasticsearch url: http://localhost:9200
2020-09-17T13:18:44.527+0400	INFO	[publisher]	pipeline/module.go:113	Beat name: Cl1rVoYance
2020-09-17T13:18:44.527+0400	INFO	[monitoring]	log/log.go:118	Starting metrics logging every 30s
2020-09-17T13:18:44.527+0400	INFO	instance/beat.go:449	ptbeat start running.
2020-09-17T13:18:44.527+0400	INFO	beater/PTbeat.go:46	ptbeat is running! Hit CTRL-C to stop it.
2020-09-17T13:18:47.513+0400	INFO	[add_cloud_metadata]	add_cloud_metadata/add_cloud_metadata.go:89	add_cloud_metadata: hosting provider type not detected.
2020-09-17T13:18:47.514+0400	INFO	beater/PTbeat.go:70	Event sent
2020-09-17T13:18:47.521+0400	INFO	beater/PTbeat.go:70	Event sent
2020-09-17T13:18:47.534+0400	INFO	beater/PTbeat.go:70	Event sent
2020-09-17T13:18:48.514+0400	INFO	[publisher_pipeline_output]	pipeline/output.go:143	Connecting to backoff(elasticsearch(http://localhost:9200))
2020-09-17T13:18:48.514+0400	INFO	[publisher]	pipeline/retry.go:219	retryer: send unwait signal to consumer
2020-09-17T13:18:48.514+0400	INFO	[publisher]	pipeline/retry.go:223	  done
2020-09-17T13:18:48.534+0400	INFO	beater/PTbeat.go:70	Event sent
2020-09-17T13:18:49.029+0400	ERROR	instance/metrics.go:92	Error while getting memory usage: error retrieving process stats: cannot find matching process for pid=19875
2020-09-17T13:18:49.029+0400	ERROR	instance/metrics.go:136	Error retrieving CPU percentages: error retrieving process stats: cannot find matching process for pid=19875
2020-09-17T13:18:49.030+0400	ERROR	instance/metrics_file_descriptors.go:39	Error while retrieving FD information: error retrieving process stats: cannot find matching process for pid=19875
2020-09-17T13:18:49.030+0400	INFO	[monitoring]	log/log.go:153	Total non-zero metrics	{"monitoring": {"metrics": {"beat":{"info":{"ephemeral_id":"55b6e686-4edc-4bbe-a471-374e763fbccd","uptime":{"ms":4528}},"memstats":{"gc_next":6900256,"memory_alloc":4495576,"memory_total":9625080},"runtime":{"goroutines":14}},"libbeat":{"config":{"module":{"running":0}},"output":{"type":"elasticsearch"},"pipeline":{"clients":0,"events":{"active":4,"published":4,"total":4}}},"system":{"cpu":{"cores":4},"load":{"1":3.46,"15":1.48,"5":1.85,"norm":{"1":0.865,"15":0.37,"5":0.4625}}}}}}
2020-09-17T13:18:49.030+0400	INFO	[monitoring]	log/log.go:154	Uptime: 4.52937499s
2020-09-17T13:18:49.030+0400	INFO	[monitoring]	log/log.go:131	Stopping metrics logging.
2020-09-17T13:18:49.030+0400	INFO	instance/beat.go:455	ptbeat stopped.
